﻿{
  "swagger": "2.0",
  "info": {
    "title": "Cramo Inriver PIM - Version 1",
    "version": "1.0"
  },
  "host": "cramoapi.azure-api.net",
  "basePath": "/rest/pim",
  "schemes": [
    "https"
  ],
  "paths": {
    "/documents": {
      "post": {
        "description": "Sends SRA-information to ",
        "operationId": "/documents_post",
        "parameters": [
          {
            "name": "productId",
            "in": "query",
            "description": "",
            "required": true,
            "type": "string"
          }
        ],
        "consumes": [
          "text/xml",
          "application/xml"
        ],
        "responses": {
          "200": {
            "description": ""
          }
        },
        "produces": [
          "text/xml",
          "application/xml"
        ]
      }
    },
    "/channeldata": {
      "get": {
        "description": "Init all products and cvl-lists for a given channelId",
        "operationId": "/channeldata_get",
        "parameters": [
          {
            "name": "channelId",
            "in": "query",
            "description": "",
            "required": true,
            "type": "string",
            "default": "1",
            "enum": [
              "1"
            ]
          },
          {
            "name": "subscriberId",
            "in": "query",
            "description": "",
            "type": "string"
          }
        ],
        "responses": {
          "200": {
            "description": ""
          }
        },
        "produces": [
          "text/xml"
        ]
      }
    }
  }
}